…
    ##                  code     num    etat      debut        fin
    ## 1 Code de l'éducation D337-29 MODIFIE 2006-05-24 2009-09-01
    ## 2 Code de l'éducation D337-29 MODIFIE 2009-09-01 2022-01-01
    ## 3 Code de l'éducation D337-29  ABROGE 2021-01-01 2022-01-01
    ##                     id        partie
    ## 1 LEGIARTI000006526812 Réglementaire
    ## 2 LEGIARTI000020242720 Réglementaire
    ## 3 LEGIARTI000042456302 Réglementaire

ABROGE démarre avant la fin de la ligne précédente. Sur le portail
“abrogé” n’apparait pas.

Cas concernés :

    ## # A tibble: 38 × 7
    ## # Groups:   num [36]
    ##    code                num     etat            debut      fin       id    partie
    ##    <fct>               <chr>   <fct>           <chr>      <chr>     <chr> <fct> 
    ##  1 Code de l'éducation L237-2  ABROGE          2002-01-18 2005-01-… LEGI… Légis…
    ##  2 Code de l'éducation L372-1  MODIFIE         2004-07-17 2005-04-… LEGI… Légis…
    ##  3 Code de l'éducation L631-1  MODIFIE         2004-07-17 2010-10-… LEGI… Légis…
    ##  4 Code de l'éducation L631-1  MODIFIE         2004-08-11 2004-08-… LEGI… Légis…
    ##  5 Code de l'éducation L261-1  MODIFIE         2006-04-19 2008-07-… LEGI… Légis…
    ##  6 Code de l'éducation L262-1  MODIFIE         2006-04-19 2008-01-… LEGI… Légis…
    ##  7 Code de l'éducation L263-1  MODIFIE         2006-04-19 2007-08-… LEGI… Légis…
    ##  8 Code de l'éducation D332-26 MODIFIE         2010-06-15 2012-02-… LEGI… Régle…
    ##  9 Code de l'éducation D313-23 MODIFIE_MORT_NE 2011-11-01 2011-11-… LEGI… Régle…
    ## 10 Code de l'éducation R313-52 MODIFIE_MORT_NE 2011-11-01 2011-11-… LEGI… Régle…
    ## # ℹ 28 more rows
…
